…
NYC Weather
-----------

**Question 1: Determine whether there are any clear outliers in wind
speed (wind\_speed) that should be rejected. If so, filter those bad
point(s) and proceed.**

Start by specifying which data set you will be using.

    nycflights13::weather

    ## # A tibble: 26,130 × 15
    ##    origin  year month   day  hour  temp  dewp humid wind_dir wind_speed
    ##     <chr> <dbl> <dbl> <int> <int> <dbl> <dbl> <dbl>    <dbl>      <dbl>
    ## 1     EWR  2013     1     1     0 37.04 21.92 53.97      230   10.35702
    ## 2     EWR  2013     1     1     1 37.04 21.92 53.97      230   13.80936
    ## 3     EWR  2013     1     1     2 37.94 21.92 52.09      230   12.65858
    ## 4     EWR  2013     1     1     3 37.94 23.00 54.51      230   13.80936
    ## 5     EWR  2013     1     1     4 37.94 24.08 57.04      240   14.96014
    ## 6     EWR  2013     1     1     6 39.02 26.06 59.37      270   10.35702
    ## 7     EWR  2013     1     1     7 39.02 26.96 61.63      250    8.05546
    ## 8     EWR  2013     1     1     8 39.02 28.04 64.43      240   11.50780
    ## 9     EWR  2013     1     1     9 39.92 28.04 62.21      250   12.65858
    ## 10    EWR  2013     1     1    10 39.02 28.04 64.43      260   12.65858
    ## # ... with 26,120 more rows, and 5 more variables: wind_gust <dbl>,
    ## #   precip <dbl>, pressure <dbl>, visib <dbl>, time_hour <dttm>
…
Need to find the median wind speed for each direction, sorted by the
three airports. Use the SPLIT-APPLY-COMBINE approach. SPLIT the data in
two ways, airport and wind direction. APPLY the median function to the
groups. COMBINE into a table showing 3 columns.

    median <- wind_filter %>%
      group_by(origin, wind_dir) %>% #SPLIT into groups
      summarize (
        speed=median(wind_speed, na.rm=TRUE) #APPLY the median function to these groups
      )
     #COMBINE is the output table of the median data frame 
    median

    ## Source: local data frame [114 x 3]
    ## Groups: origin [?]
    ## 
    ##    origin wind_dir    speed
    ##     <chr>    <dbl>    <dbl>
    ## 1     EWR        0  0.00000
    ## 2     EWR       10  9.20624
    ## 3     EWR       20  9.20624
    ## 4     EWR       30  9.20624
    ## 5     EWR       40 10.35702
    ## 6     EWR       50  8.05546
    ## 7     EWR       60  8.05546
    ## 8     EWR       70  6.90468
    ## 9     EWR       80  6.90468
    ## 10    EWR       90  6.32929
    ## # ... with 104 more rows
…
NYC Flights and Airlines
------------------------

**Question 3: Make a table with two columns: airline name (not carrier
code) and median distance flown from JFK airport. The table should be
arranged in order of decreasing mean flight distance. **

Preview the data

    nycflights13::flights

    ## # A tibble: 336,776 × 19
    ##     year month   day dep_time sched_dep_time dep_delay arr_time
    ##    <int> <int> <int>    <int>          <int>     <dbl>    <int>
    ## 1   2013     1     1      517            515         2      830
    ## 2   2013     1     1      533            529         4      850
    ## 3   2013     1     1      542            540         2      923
    ## 4   2013     1     1      544            545        -1     1004
    ## 5   2013     1     1      554            600        -6      812
    ## 6   2013     1     1      554            558        -4      740
    ## 7   2013     1     1      555            600        -5      913
    ## 8   2013     1     1      557            600        -3      709
    ## 9   2013     1     1      557            600        -3      838
    ## 10  2013     1     1      558            600        -2      753
    ## # ... with 336,766 more rows, and 12 more variables: sched_arr_time <int>,
    ## #   arr_delay <dbl>, carrier <chr>, flight <int>, tailnum <chr>,
    ## #   origin <chr>, dest <chr>, air_time <dbl>, distance <dbl>, hour <dbl>,
    ## #   minute <dbl>, time_hour <dttm>
…
Will need to use the SPLIT-APPLY-COMBINE approach. SPLIT the flight data
into groups based on airlines and month and filter to only use EWR data,
APPLY the mean function to the data, COMBINE the data into a wide format
table. Will need to use the spread() function as it makes long tables
shorter and wider.

    EWR<- nycflights13::flights%>% #define the data set you are using
      filter(origin == "EWR") %>% #filter for planes that left EWR
      group_by(carrier, month) %>% #Split into groups based on month and carrier
      summarize(n=n()) #apply a count function to the groups
    EWR #look at the table

    ## Source: local data frame [131 x 3]
    ## Groups: carrier [?]
    ## 
    ##    carrier month     n
    ##      <chr> <int> <int>
    ## 1       9E     1    82
    ## 2       9E     2    75
    ## 3       9E     3    91
    ## 4       9E     4    88
    ## 5       9E     5   103
    ## 6       9E     6    88
    ## 7       9E     7    94
    ## 8       9E     8    96
    ## 9       9E     9    87
    ## 10      9E    10   146
    ## # ... with 121 more rows
…
I now have a data frame of top 10 names. I can merge it with the
babynames data frame using a left join with top 10 as the primary data
frame. This will ensure that only the names that appear in the top ten
will be preserved. Need to eliminate the prop column.

    top10_all<-top10%>%
      left_join(babynames, by="name", na.rm=TRUE)
    top10_all

    ## Source: local data frame [3,753 x 6]
    ## Groups: sex2 [?]
    ## 
    ##     name  sex2  year   sex     n         prop
    ##    <chr> <chr> <dbl> <chr> <int>        <dbl>
    ## 1   Emma     F  1880     F  2003 2.052149e-02
    ## 2   Emma     F  1880     M    10 8.445946e-05
    ## 3   Emma     F  1881     F  2034 2.057538e-02
    ## 4   Emma     F  1881     M     9 8.311477e-05
    ## 5   Emma     F  1882     F  2303 1.990527e-02
    ## 6   Emma     F  1882     M     7 5.736153e-05
    ## 7   Emma     F  1883     F  2367 1.971449e-02
    ## 8   Emma     F  1883     M     7 6.223329e-05
    ## 9   Emma     F  1884     F  2587 1.880251e-02
    ## 10  Emma     F  1884     M     9 7.332513e-05
    ## # ... with 3,743 more rows
…
Load in the NASA Weather data

    library(nasaweather)

This package contains four datasets:

atmos: atmospheric measurements elev: elevations borders: borders of
countries in the region storms: tracks of tropical storms

We will work the storm dataset:

    nasaweather::storms

    ## # A tibble: 2,747 × 11
    ##       name  year month   day  hour   lat  long pressure  wind
    ##      <chr> <int> <int> <int> <int> <dbl> <dbl>    <int> <int>
    ## 1  Allison  1995     6     3     0  17.4 -84.3     1005    30
    ## 2  Allison  1995     6     3     6  18.3 -84.9     1004    30
    ## 3  Allison  1995     6     3    12  19.3 -85.7     1003    35
    ## 4  Allison  1995     6     3    18  20.6 -85.8     1001    40
    ## 5  Allison  1995     6     4     0  22.0 -86.0      997    50
    ## 6  Allison  1995     6     4     6  23.3 -86.3      995    60
    ## 7  Allison  1995     6     4    12  24.7 -86.2      987    65
    ## 8  Allison  1995     6     4    18  26.2 -86.2      988    65
    ## 9  Allison  1995     6     5     0  27.6 -86.1      988    65
    ## 10 Allison  1995     6     5     6  28.5 -85.6      990    60
    ## # ... with 2,737 more rows, and 2 more variables: type <chr>,
    ## #   seasday <int>

I like the hurricane dataset the best. Let's see what month has the most
powerful (based on wind speed) hurricanes between 1995 and 2000.

    storms<-nasaweather::storms%>%
      filter(type=="Hurricane")%>% #only want hurricanes, not tropical storms
      group_by(month,name,year)%>%
      summarize(mean_speed=mean(wind)) #apply a count function to the groups)
    storms

    ## Source: local data frame [55 x 4]
    ## Groups: month, name [?]
    ## 
    ##    month     name  year mean_speed
    ##    <int>    <chr> <int>      <dbl>
    ## 1      6  Allison  1995   65.00000
    ## 2      7   Bertha  1996   78.86364
    ## 3      7     Bill  1997   65.00000
    ## 4      7    Danny  1997   67.85714
    ## 5      8  Alberto  2000   78.61702
    ## 6      8   Bonnie  1998   90.00000
    ## 7      8     Bret  1999   98.00000
    ## 8      8    Cindy  1999   87.29167
    ## 9      8 Danielle  1998   81.15385
    ## 10     8    Debby  2000   67.77778
    ## # ... with 45 more rows
…
